!CSV A.01.01
!Agilent Technologies,N5242A,MY53222371,A.10.20.02
!Agilent N5242A: A.10.20.02
!Date: Monday, June 25, 2018 14:02:01
!Source: Standard

BEGIN CH1_DATA
Freq(Hz),S21(DB),S21(DEG)
1075420000,-59.550175,-19.964027
1080420000,-59.473343,-37.572235
1085420000,-59.873909,-58.684277
1090420000,-59.696671,-67.9673
1095420000,-59.114006,-85.055992
1100420000,-58.624252,-109.90276
1105420000,-59.24131,-130.70682
1110420000,-59.735355,-145.25533
1115420000,-60.479813,-170.39336
1120420000,-60.361233,174.67192
1125420000,-60.937172,154.41254
1130420000,-61.264473,134.39175
1135420000,-61.162457,117.54475
1140420000,-62.015644,99.481522
1145420000,-62.603657,79.727386
1150420000,-62.497059,59.080658
1155420000,-63.549122,41.421108
1160420000,-64.342972,20.746437
1165420000,-64.677589,4.4963393
1170420000,-65.968018,-7.7617245
1175420000,-65.819168,-25.760094
1180420000,-66.833717,-41.459667
1185420000,-66.243523,-56.75058
1190420000,-67.380318,-80.974533
1195420000,-68.976746,-100.94007
1200420000,-71.838806,-116.27571
1205420000,-71.250641,-119.28274
1210420000,-70.746857,-134.33598
1215420000,-71.623466,-157.53616
1220420000,-73.129509,-179.63873
1225420000,-75.343147,-178.3295
1230420000,-77.816765,158.8073
1235420000,-77.96653,141.69278
1240420000,-80.729683,-152.93498
1245420000,-78.804817,166.20746
1250420000,-78.925682,148.77498
1255420000,-73.864845,166.84317
1260420000,-77.887764,137.18135
1265420000,-70.243813,138.66277
1270420000,-69.964508,113.35342
1275420000,-67.864227,86.869957
1280420000,-66.539764,68.52549
1285420000,-63.853947,39.062176
1290420000,-64.286819,21.780472
1295420000,-63.760555,-5.6550231
1300420000,-62.546749,-21.448521
1305420000,-63.678886,-43.696789
1310420000,-62.327641,-67.53978
1315420000,-61.452675,-80.705048
1320420000,-62.953541,-109.01483
1325420000,-61.828037,-128.17899
1330420000,-61.411667,-149.71138
1335420000,-61.155556,-163.8996
1340420000,-60.997334,171.27522
1345420000,-60.996525,144.97862
1350420000,-60.658146,126.85381
1355420000,-61.238266,106.53768
1360420000,-61.427891,87.617882
1365420000,-61.262901,66.046753
1370420000,-61.627163,45.888157
1375420000,-62.307354,23.704559
1380420000,-62.451523,14.425163
1385420000,-62.914173,-2.9902086
1390420000,-61.354988,-23.033279
1395420000,-61.045624,-40.685345
1400420000,-61.859451,-62.638264
1405420000,-61.62738,-82.244102
1410420000,-61.109947,-94.768173
1415420000,-61.228592,-119.38704
1420420000,-60.137089,-141.28365
1425420000,-60.740463,-163.18761
1430420000,-59.60133,-174.23633
1435420000,-59.922985,160.16411
1440420000,-59.477798,135.36656
1445420000,-58.97287,118.59862
1450420000,-59.90704,94.000702
1455420000,-59.926384,75.347084
1460420000,-59.514782,60.399502
1465420000,-59.298573,33.072147
1470420000,-58.850468,20.090719
1475420000,-58.413898,-1.9063014
1480420000,-57.733807,-24.895395
1485420000,-57.394417,-52.185047
1490420000,-57.682236,-60.680111
1495420000,-56.764008,-78.469437
1500420000,-55.370358,-102.53976
1505420000,-55.159878,-123.23523
1510420000,-54.339996,-143.81572
1515420000,-53.586823,-164.50638
1520420000,-53.154381,177.1584
1525420000,-52.309811,157.24757
1530420000,-50.86097,134.59169
1535420000,-50.629322,114.30245
1540420000,-49.216698,95.250961
1545420000,-47.875679,73.147385
1550420000,-46.371803,52.631035
1555420000,-44.828964,27.801912
1560420000,-43.232918,3.4443755
1565420000,-41.584721,-25.445396
1570420000,-40.338947,-52.853935
1575420000,-38.5835,-85.818108
1580420000,-37.605728,-127.02428
1585420000,-39.197872,-164.7493
1590420000,-40.479382,173.47758
1595420000,-40.204624,148.95837
1600420000,-40.58445,121.01801
1605420000,-41.136375,93.594788
1610420000,-41.717228,69.204254
1615420000,-42.473557,44.327206
1620420000,-43.578438,20.026608
1625420000,-44.271942,0.63624412
1630420000,-44.966766,-17.413408
1635420000,-44.902668,-38.579384
1640420000,-45.412327,-61.709019
1645420000,-46.2183,-80.46991
1650420000,-46.716042,-98.218933
1655420000,-47.011036,-115.15891
1660420000,-47.182495,-132.01965
1665420000,-47.114925,-152.88498
1670420000,-47.651154,-173.03188
1675420000,-47.611092,169.47592
1680420000,-47.950577,150.36456
1685420000,-48.10627,133.84814
1690420000,-48.196213,116.70773
1695420000,-47.672436,99.10289
1700420000,-47.748455,80.306084
1705420000,-47.551918,61.169312
1710420000,-47.626839,39.585278
1715420000,-47.489738,23.836861
1720420000,-47.397663,4.630013
1725420000,-47.317505,-14.877323
1730420000,-47.987637,-34.949223
1735420000,-47.848892,-46.467442
1740420000,-47.211948,-65.869072
1745420000,-46.683777,-84.332512
1750420000,-46.121483,-107.82794
1755420000,-46.495365,-128.77567
1760420000,-46.54335,-148.80113
1765420000,-46.159008,-165.95656
1770420000,-46.208183,173.4709
1775420000,-46.323406,150.52603
1780420000,-46.571533,130.67438
1785420000,-47.030941,113.08027
1790420000,-46.585808,94.045204
1795420000,-46.783497,75.829117
1800420000,-46.925114,53.604889
1805420000,-47.241447,35.907089
1810420000,-47.273708,17.871639
1815420000,-47.734703,-1.0941727
1820420000,-47.58992,-19.864269
1825420000,-47.668308,-36.378048
1830420000,-47.515774,-56.037128
1835420000,-47.57494,-79.542793
1840420000,-47.856812,-94.926971
1845420000,-48.732651,-113.43235
1850420000,-48.504257,-127.23992
1855420000,-47.978916,-147.98166
1860420000,-47.854862,-170.42613
1865420000,-48.573513,172.33011
1870420000,-48.690437,157.18311
1875420000,-48.812958,141.13947
1880420000,-47.878948,123.56911
1885420000,-48.039661,100.36069
1890420000,-48.732407,81.822891
1895420000,-48.915691,63.482578
1900420000,-48.863049,48.908661
1905420000,-48.366299,28.880243
1910420000,-48.227669,8.2768641
1915420000,-48.505947,-11.162461
1920420000,-49.01289,-28.418272
1925420000,-48.692013,-49.217674
1930420000,-48.536114,-66.297737
1935420000,-48.943077,-84.655678
1940420000,-48.440826,-101.31286
1945420000,-48.415649,-125.02015
1950420000,-48.476597,-144.58937
1955420000,-48.77449,-161.36267
1960420000,-48.614033,177.23764
1965420000,-48.351704,156.68243
1970420000,-49.007507,135.20479
1975420000,-49.716061,113.78987
1980420000,-50.509941,99.999748
1985420000,-49.847893,79.668587
1990420000,-49.675304,62.73278
1995420000,-49.652397,38.187378
2000420000,-51.017567,21.01951
2005420000,-51.610859,1.3746338
2010420000,-51.47625,-12.563395
2015420000,-51.866413,-33.615929
2020420000,-52.265373,-55.487637
2025420000,-52.564938,-75.852226
2030420000,-53.283878,-88.868172
2035420000,-52.973431,-105.65703
2040420000,-53.635818,-117.76142
2045420000,-53.598091,-143.18694
2050420000,-54.079456,-160.68311
2055420000,-54.638054,-173.7337
2060420000,-54.635178,158.52975
2065420000,-54.985279,145.42284
2070420000,-55.577995,124.55669
2075420000,-55.552273,108.82773
END

